<?xml version="1.0" encoding="utf-8"?>
<!-- Generator: Adobe Illustrator 15.0.0, SVG Export Plug-In  -->
<!DOCTYPE svg PUBLIC "-//W3C//DTD SVG 1.1//EN" "http://www.w3.org/Graphics/SVG/1.1/DTD/svg11.dtd" [
	<!ENTITY ns_flows "http://ns.adobe.com/Flows/1.0/">
]>
<svg version="1.1"
	 xmlns="http://www.w3.org/2000/svg" xmlns:xlink="http://www.w3.org/1999/xlink" xmlns:a="http://ns.adobe.com/AdobeSVGViewerExtensions/3.0/"
	 x="0px" y="0px" width="1166px" height="17px" viewBox="-5.637 -4.386 1166 17"
	 overflow="visible" enable-background="new -5.637 -4.386 1166 17" xml:space="preserve">
<defs>
</defs>
<rect y="1.614" fill="none" width="8" height="6"/>
<path fill-rule="evenodd" clip-rule="evenodd" fill="#A5A5A5" d="M7.918,3.41c0,1.883-1.606,3.414-3.587,3.414
	S0.747,5.293,0.747,3.41C0.747,1.529,2.351,0,4.331,0S7.918,1.529,7.918,3.41z"/>
<rect x="14" y="1.614" fill="none" width="7" height="6"/>
<path fill-rule="evenodd" clip-rule="evenodd" fill="#A5A5A5" d="M21.587,3.41c0,1.883-1.608,3.414-3.588,3.414
	c-1.98,0-3.586-1.531-3.586-3.414c0-1.881,1.605-3.41,3.586-3.41C19.979,0,21.587,1.529,21.587,3.41z"/>
<rect x="27" y="1.614" fill="none" width="7" height="6"/>
<path fill-rule="evenodd" clip-rule="evenodd" fill="#A5A5A5" d="M35.253,3.41c0,1.883-1.605,3.414-3.586,3.414
	s-3.586-1.531-3.586-3.414c0-1.881,1.605-3.41,3.586-3.41S35.253,1.529,35.253,3.41z"/>
<rect x="42" y="1.614" fill="none" width="6" height="6"/>
<path fill-rule="evenodd" clip-rule="evenodd" fill="#A5A5A5" d="M48.921,3.41c0,1.883-1.606,3.414-3.586,3.414
	c-1.98,0-3.586-1.531-3.586-3.414c0-1.881,1.605-3.41,3.586-3.41C47.314,0,48.921,1.529,48.921,3.41z"/>
<rect x="56" y="1.614" fill="none" width="6" height="6"/>
<path fill-rule="evenodd" clip-rule="evenodd" fill="#A5A5A5" d="M62.589,3.41c0,1.883-1.605,3.414-3.586,3.414
	s-3.586-1.531-3.586-3.414c0-1.881,1.605-3.41,3.586-3.41S62.589,1.529,62.589,3.41z"/>
<rect x="69" y="1.614" fill="none" width="6" height="6"/>
<path fill-rule="evenodd" clip-rule="evenodd" fill="#A5A5A5" d="M76.257,3.41c0,1.883-1.606,3.414-3.586,3.414
	c-1.98,0-3.586-1.531-3.586-3.414c0-1.881,1.605-3.41,3.586-3.41C74.65,0,76.257,1.529,76.257,3.41z"/>
<rect x="83" y="1.614" fill="none" width="7" height="6"/>
<path fill-rule="evenodd" clip-rule="evenodd" fill="#A5A5A5" d="M89.925,3.41c0,1.883-1.605,3.414-3.586,3.414
	s-3.586-1.531-3.586-3.414c0-1.881,1.605-3.41,3.586-3.41S89.925,1.529,89.925,3.41z"/>
<rect x="97" y="1.614" fill="none" width="6" height="6"/>
<path fill-rule="evenodd" clip-rule="evenodd" fill="#A5A5A5" d="M103.593,3.41c0,1.883-1.606,3.414-3.586,3.414
	c-1.98,0-3.586-1.531-3.586-3.414c0-1.881,1.605-3.41,3.586-3.41C101.986,0,103.593,1.529,103.593,3.41z"/>
<rect x="110" y="1.614" fill="none" width="7" height="6"/>
<path fill-rule="evenodd" clip-rule="evenodd" fill="#A5A5A5" d="M117.261,3.41c0,1.883-1.605,3.414-3.587,3.414
	c-1.98,0-3.585-1.531-3.585-3.414c0-1.881,1.604-3.41,3.585-3.41C115.655,0,117.261,1.529,117.261,3.41z"/>
<rect x="124" y="1.614" fill="none" width="7" height="6"/>
<path fill-rule="evenodd" clip-rule="evenodd" fill="#A5A5A5" d="M130.929,3.41c0,1.883-1.605,3.414-3.586,3.414
	c-1.981,0-3.586-1.531-3.586-3.414c0-1.881,1.604-3.41,3.586-3.41C129.323,0,130.929,1.529,130.929,3.41z"/>
<rect x="138" y="1.614" fill="none" width="6" height="6"/>
<path fill-rule="evenodd" clip-rule="evenodd" fill="#A5A5A5" d="M144.597,3.41c0,1.883-1.606,3.414-3.587,3.414
	s-3.585-1.531-3.585-3.414c0-1.881,1.604-3.41,3.585-3.41S144.597,1.529,144.597,3.41z"/>
<rect x="150" y="1.614" fill="none" width="8" height="6"/>
<path fill-rule="evenodd" clip-rule="evenodd" fill="#A5A5A5" d="M158.265,3.41c0,1.883-1.606,3.414-3.586,3.414
	c-1.981,0-3.586-1.531-3.586-3.414c0-1.881,1.604-3.41,3.586-3.41C156.658,0,158.265,1.529,158.265,3.41z"/>
<rect x="164" y="1.614" fill="none" width="8" height="6"/>
<path fill-rule="evenodd" clip-rule="evenodd" fill="#A5A5A5" d="M171.933,3.41c0,1.883-1.606,3.414-3.588,3.414
	c-1.979,0-3.585-1.531-3.585-3.414c0-1.881,1.605-3.41,3.585-3.41C170.326,0,171.933,1.529,171.933,3.41z"/>
<rect x="178" y="1.614" fill="none" width="8" height="6"/>
<path fill-rule="evenodd" clip-rule="evenodd" fill="#A5A5A5" d="M185.6,3.41c0,1.883-1.605,3.414-3.585,3.414
	c-1.981,0-3.586-1.531-3.586-3.414c0-1.881,1.604-3.41,3.586-3.41C183.994,0,185.6,1.529,185.6,3.41z"/>
<rect x="191" y="1.614" fill="none" width="8" height="6"/>
<path fill-rule="evenodd" clip-rule="evenodd" fill="#A5A5A5" d="M199.269,3.41c0,1.883-1.606,3.414-3.588,3.414
	c-1.979,0-3.585-1.531-3.585-3.414c0-1.881,1.605-3.41,3.585-3.41C197.662,0,199.269,1.529,199.269,3.41z"/>
<rect x="205" y="1.614" fill="none" width="8" height="6"/>
<path fill-rule="evenodd" clip-rule="evenodd" fill="#A5A5A5" d="M212.936,3.41c0,1.883-1.605,3.414-3.585,3.414
	c-1.981,0-3.586-1.531-3.586-3.414c0-1.881,1.604-3.41,3.586-3.41C211.33,0,212.936,1.529,212.936,3.41z"/>
<rect x="219" y="1.614" fill="none" width="8" height="6"/>
<path fill-rule="evenodd" clip-rule="evenodd" fill="#A5A5A5" d="M226.604,3.41c0,1.883-1.606,3.414-3.588,3.414
	c-1.979,0-3.585-1.531-3.585-3.414c0-1.881,1.605-3.41,3.585-3.41C224.998,0,226.604,1.529,226.604,3.41z"/>
<rect x="232" y="1.614" fill="none" width="8" height="6"/>
<path fill-rule="evenodd" clip-rule="evenodd" fill="#A5A5A5" d="M240.271,3.41c0,1.883-1.605,3.414-3.587,3.414
	c-1.98,0-3.584-1.531-3.584-3.414c0-1.881,1.604-3.41,3.584-3.41C238.666,0,240.271,1.529,240.271,3.41z"/>
<rect x="246" y="1.614" fill="none" width="8" height="6"/>
<path fill-rule="evenodd" clip-rule="evenodd" fill="#A5A5A5" d="M253.94,3.41c0,1.883-1.606,3.414-3.588,3.414
	c-1.979,0-3.585-1.531-3.585-3.414c0-1.881,1.605-3.41,3.585-3.41C252.334,0,253.94,1.529,253.94,3.41z"/>
<rect x="260" y="1.614" fill="none" width="8" height="6"/>
<path fill-rule="evenodd" clip-rule="evenodd" fill="#A5A5A5" d="M267.607,3.41c0,1.883-1.605,3.414-3.587,3.414
	c-1.98,0-3.584-1.531-3.584-3.414c0-1.881,1.604-3.41,3.584-3.41C266.002,0,267.607,1.529,267.607,3.41z"/>
<rect x="273" y="1.614" fill="none" width="7" height="6"/>
<path fill-rule="evenodd" clip-rule="evenodd" fill="#A5A5A5" d="M281.276,3.41c0,1.883-1.607,3.414-3.587,3.414
	c-1.98,0-3.586-1.531-3.586-3.414c0-1.881,1.605-3.41,3.586-3.41C279.669,0,281.276,1.529,281.276,3.41z"/>
<rect x="287" y="1.614" fill="none" width="7" height="6"/>
<path fill-rule="evenodd" clip-rule="evenodd" fill="#A5A5A5" d="M294.943,3.41c0,1.883-1.605,3.414-3.587,3.414
	c-1.98,0-3.585-1.531-3.585-3.414c0-1.881,1.604-3.41,3.585-3.41C293.338,0,294.943,1.529,294.943,3.41z"/>
<rect x="301" y="1.614" fill="none" width="7" height="6"/>
<path fill-rule="evenodd" clip-rule="evenodd" fill="#A5A5A5" d="M308.611,3.41c0,1.883-1.606,3.414-3.587,3.414
	c-1.979,0-3.585-1.531-3.585-3.414c0-1.881,1.606-3.41,3.585-3.41C307.005,0,308.611,1.529,308.611,3.41z"/>
<rect x="315" y="1.614" fill="none" width="6" height="6"/>
<path fill-rule="evenodd" clip-rule="evenodd" fill="#A5A5A5" d="M322.279,3.41c0,1.883-1.605,3.414-3.587,3.414
	c-1.98,0-3.585-1.531-3.585-3.414c0-1.881,1.604-3.41,3.585-3.41C320.674,0,322.279,1.529,322.279,3.41z"/>
<rect x="329" y="1.614" fill="none" width="6" height="6"/>
<path fill-rule="evenodd" clip-rule="evenodd" fill="#A5A5A5" d="M335.947,3.41c0,1.883-1.606,3.414-3.587,3.414
	s-3.585-1.531-3.585-3.414c0-1.881,1.604-3.41,3.585-3.41S335.947,1.529,335.947,3.41z"/>
<rect x="343" y="1.614" fill="none" width="6" height="6"/>
<path fill-rule="evenodd" clip-rule="evenodd" fill="#A5A5A5" d="M349.615,3.41c0,1.883-1.605,3.414-3.587,3.414
	c-1.98,0-3.585-1.531-3.585-3.414c0-1.881,1.604-3.41,3.585-3.41C348.01,0,349.615,1.529,349.615,3.41z"/>
<rect x="356" y="1.614" fill="none" width="7" height="6"/>
<path fill-rule="evenodd" clip-rule="evenodd" fill="#A5A5A5" d="M363.283,3.41c0,1.883-1.606,3.414-3.587,3.414
	s-3.585-1.531-3.585-3.414c0-1.881,1.604-3.41,3.585-3.41S363.283,1.529,363.283,3.41z"/>
<rect x="370" y="1.614" fill="none" width="7" height="6"/>
<path fill-rule="evenodd" clip-rule="evenodd" fill="#A5A5A5" d="M376.951,3.41c0,1.883-1.605,3.414-3.587,3.414
	c-1.98,0-3.585-1.531-3.585-3.414c0-1.881,1.604-3.41,3.585-3.41C375.346,0,376.951,1.529,376.951,3.41z"/>
<rect x="384" y="1.614" fill="none" width="7" height="6"/>
<path fill-rule="evenodd" clip-rule="evenodd" fill="#A5A5A5" d="M390.619,3.41c0,1.883-1.606,3.414-3.587,3.414
	s-3.585-1.531-3.585-3.414c0-1.881,1.604-3.41,3.585-3.41S390.619,1.529,390.619,3.41z"/>
<rect x="397" y="1.614" fill="none" width="7" height="6"/>
<path fill-rule="evenodd" clip-rule="evenodd" fill="#A5A5A5" d="M404.287,3.41c0,1.883-1.606,3.414-3.587,3.414
	s-3.585-1.531-3.585-3.414c0-1.881,1.604-3.41,3.585-3.41S404.287,1.529,404.287,3.41z"/>
<rect x="410" y="1.614" fill="none" width="8" height="6"/>
<path fill-rule="evenodd" clip-rule="evenodd" fill="#A5A5A5" d="M417.955,3.41c0,1.883-1.606,3.414-3.587,3.414
	s-3.585-1.531-3.585-3.414c0-1.881,1.604-3.41,3.585-3.41S417.955,1.529,417.955,3.41z"/>
<rect x="424" y="1.614" fill="none" width="8" height="6"/>
<path fill-rule="evenodd" clip-rule="evenodd" fill="#A5A5A5" d="M431.623,3.41c0,1.883-1.606,3.414-3.587,3.414
	s-3.585-1.531-3.585-3.414c0-1.881,1.604-3.41,3.585-3.41S431.623,1.529,431.623,3.41z"/>
<rect x="437" y="1.614" fill="none" width="8" height="6"/>
<path fill-rule="evenodd" clip-rule="evenodd" fill="#A5A5A5" d="M445.29,3.41c0,1.883-1.605,3.414-3.586,3.414
	s-3.585-1.531-3.585-3.414c0-1.881,1.604-3.41,3.585-3.41S445.29,1.529,445.29,3.41z"/>
<rect x="451" y="1.614" fill="none" width="8" height="6"/>
<path fill-rule="evenodd" clip-rule="evenodd" fill="#A5A5A5" d="M458.959,3.41c0,1.883-1.606,3.414-3.587,3.414
	s-3.586-1.531-3.586-3.414c0-1.881,1.605-3.41,3.586-3.41S458.959,1.529,458.959,3.41z"/>
<rect x="465" y="1.614" fill="none" width="8" height="6"/>
<path fill-rule="evenodd" clip-rule="evenodd" fill="#A5A5A5" d="M472.626,3.41c0,1.883-1.605,3.414-3.586,3.414
	s-3.586-1.531-3.586-3.414c0-1.881,1.605-3.41,3.586-3.41S472.626,1.529,472.626,3.41z"/>
<rect x="478" y="1.614" fill="none" width="8" height="6"/>
<path fill-rule="evenodd" clip-rule="evenodd" fill="#A5A5A5" d="M486.294,3.41c0,1.883-1.605,3.414-3.587,3.414
	c-1.979,0-3.585-1.531-3.585-3.414c0-1.881,1.605-3.41,3.585-3.41C484.688,0,486.294,1.529,486.294,3.41z"/>
<rect x="492" y="1.614" fill="none" width="8" height="6"/>
<path fill-rule="evenodd" clip-rule="evenodd" fill="#A5A5A5" d="M499.962,3.41c0,1.883-1.605,3.414-3.587,3.414
	s-3.585-1.531-3.585-3.414c0-1.881,1.604-3.41,3.585-3.41S499.962,1.529,499.962,3.41z"/>
<rect x="506" y="1.614" fill="none" width="8" height="6"/>
<path fill-rule="evenodd" clip-rule="evenodd" fill="#A5A5A5" d="M513.63,3.41c0,1.883-1.605,3.414-3.587,3.414
	c-1.979,0-3.585-1.531-3.585-3.414c0-1.881,1.605-3.41,3.585-3.41C512.024,0,513.63,1.529,513.63,3.41z"/>
<rect x="519" y="1.614" fill="none" width="8" height="6"/>
<path fill-rule="evenodd" clip-rule="evenodd" fill="#A5A5A5" d="M527.298,3.41c0,1.883-1.605,3.414-3.587,3.414
	c-1.98,0-3.585-1.531-3.585-3.414c0-1.881,1.604-3.41,3.585-3.41C525.692,0,527.298,1.529,527.298,3.41z"/>
<rect x="533" y="1.614" fill="none" width="7" height="6"/>
<path fill-rule="evenodd" clip-rule="evenodd" fill="#A5A5A5" d="M540.966,3.41c0,1.883-1.607,3.414-3.587,3.414
	s-3.585-1.531-3.585-3.414c0-1.881,1.605-3.41,3.585-3.41S540.966,1.529,540.966,3.41z"/>
<rect x="547" y="1.614" fill="none" width="7" height="6"/>
<path fill-rule="evenodd" clip-rule="evenodd" fill="#A5A5A5" d="M554.634,3.41c0,1.883-1.605,3.414-3.587,3.414
	c-1.98,0-3.585-1.531-3.585-3.414c0-1.881,1.604-3.41,3.585-3.41C553.028,0,554.634,1.529,554.634,3.41z"/>
<rect x="560" y="1.614" fill="none" width="7" height="6"/>
<path fill-rule="evenodd" clip-rule="evenodd" fill="#A5A5A5" d="M568.302,3.41c0,1.883-1.607,3.414-3.587,3.414
	s-3.585-1.531-3.585-3.414c0-1.881,1.605-3.41,3.585-3.41S568.302,1.529,568.302,3.41z"/>
<rect x="575" y="1.614" fill="none" width="6" height="6"/>
<path fill-rule="evenodd" clip-rule="evenodd" fill="#A5A5A5" d="M581.97,3.41c0,1.883-1.605,3.414-3.587,3.414
	c-1.98,0-3.585-1.531-3.585-3.414c0-1.881,1.604-3.41,3.585-3.41C580.364,0,581.97,1.529,581.97,3.41z"/>
<rect x="589" y="1.614" fill="none" width="6" height="6"/>
<path fill-rule="evenodd" clip-rule="evenodd" fill="#A5A5A5" d="M595.638,3.41c0,1.883-1.607,3.414-3.587,3.414
	c-1.98,0-3.585-1.531-3.585-3.414c0-1.881,1.604-3.41,3.585-3.41C594.03,0,595.638,1.529,595.638,3.41z"/>
<rect x="602" y="1.614" fill="none" width="6" height="6"/>
<path fill-rule="evenodd" clip-rule="evenodd" fill="#A5A5A5" d="M609.306,3.41c0,1.883-1.607,3.414-3.587,3.414
	c-1.98,0-3.585-1.531-3.585-3.414c0-1.881,1.604-3.41,3.585-3.41C607.698,0,609.306,1.529,609.306,3.41z"/>
<rect x="616" y="1.614" fill="none" width="7" height="6"/>
<path fill-rule="evenodd" clip-rule="evenodd" fill="#A5A5A5" d="M622.974,3.41c0,1.883-1.605,3.414-3.587,3.414
	s-3.585-1.531-3.585-3.414c0-1.881,1.604-3.41,3.585-3.41S622.974,1.529,622.974,3.41z"/>
<rect x="630" y="1.614" fill="none" width="7" height="6"/>
<path fill-rule="evenodd" clip-rule="evenodd" fill="#A5A5A5" d="M636.642,3.41c0,1.883-1.607,3.414-3.587,3.414
	c-1.981,0-3.585-1.531-3.585-3.414c0-1.881,1.604-3.41,3.585-3.41C635.034,0,636.642,1.529,636.642,3.41z"/>
<rect x="643" y="1.614" fill="none" width="7" height="6"/>
<path fill-rule="evenodd" clip-rule="evenodd" fill="#A5A5A5" d="M650.31,3.41c0,1.883-1.607,3.414-3.587,3.414
	c-1.981,0-3.585-1.531-3.585-3.414c0-1.881,1.604-3.41,3.585-3.41C648.702,0,650.31,1.529,650.31,3.41z"/>
<rect x="657" y="1.614" fill="none" width="7" height="6"/>
<path fill-rule="evenodd" clip-rule="evenodd" fill="#A5A5A5" d="M663.978,3.41c0,1.883-1.607,3.414-3.587,3.414
	c-1.981,0-3.586-1.531-3.586-3.414c0-1.881,1.604-3.41,3.586-3.41C662.37,0,663.978,1.529,663.978,3.41z"/>
<rect x="670" y="1.614" fill="none" width="8" height="6"/>
<path fill-rule="evenodd" clip-rule="evenodd" fill="#A5A5A5" d="M677.646,3.41c0,1.883-1.607,3.414-3.587,3.414
	c-1.981,0-3.586-1.531-3.586-3.414c0-1.881,1.604-3.41,3.586-3.41C676.038,0,677.646,1.529,677.646,3.41z"/>
<rect x="683" y="1.614" fill="none" width="8" height="6"/>
<path fill-rule="evenodd" clip-rule="evenodd" fill="#A5A5A5" d="M691.313,3.41c0,1.883-1.607,3.414-3.587,3.414
	c-1.981,0-3.586-1.531-3.586-3.414c0-1.881,1.604-3.41,3.586-3.41C689.706,0,691.313,1.529,691.313,3.41z"/>
<rect x="697" y="1.614" fill="none" width="8" height="6"/>
<path fill-rule="evenodd" clip-rule="evenodd" fill="#A5A5A5" d="M704.981,3.41c0,1.883-1.607,3.414-3.588,3.414
	s-3.584-1.531-3.584-3.414c0-1.881,1.604-3.41,3.584-3.41S704.981,1.529,704.981,3.41z"/>
<rect x="711" y="1.614" fill="none" width="8" height="6"/>
<path fill-rule="evenodd" clip-rule="evenodd" fill="#A5A5A5" d="M718.649,3.41c0,1.883-1.607,3.414-3.588,3.414
	s-3.584-1.531-3.584-3.414c0-1.881,1.604-3.41,3.584-3.41S718.649,1.529,718.649,3.41z"/>
<rect x="724" y="1.614" fill="none" width="8" height="6"/>
<path fill-rule="evenodd" clip-rule="evenodd" fill="#A5A5A5" d="M732.317,3.41c0,1.883-1.607,3.414-3.588,3.414
	s-3.584-1.531-3.584-3.414c0-1.881,1.604-3.41,3.584-3.41S732.317,1.529,732.317,3.41z"/>
<rect x="738" y="1.614" fill="none" width="8" height="6"/>
<path fill-rule="evenodd" clip-rule="evenodd" fill="#A5A5A5" d="M745.983,3.41c0,1.883-1.605,3.414-3.586,3.414
	s-3.584-1.531-3.584-3.414c0-1.881,1.604-3.41,3.584-3.41S745.983,1.529,745.983,3.41z"/>
<rect x="752" y="1.614" fill="none" width="8" height="6"/>
<path fill-rule="evenodd" clip-rule="evenodd" fill="#A5A5A5" d="M759.653,3.41c0,1.883-1.607,3.414-3.588,3.414
	s-3.586-1.531-3.586-3.414c0-1.881,1.605-3.41,3.586-3.41S759.653,1.529,759.653,3.41z"/>
<rect x="765" y="1.614" fill="none" width="8" height="6"/>
<path fill-rule="evenodd" clip-rule="evenodd" fill="#A5A5A5" d="M773.319,3.41c0,1.883-1.605,3.414-3.586,3.414
	s-3.586-1.531-3.586-3.414c0-1.881,1.605-3.41,3.586-3.41S773.319,1.529,773.319,3.41z"/>
<rect x="779" y="1.614" fill="none" width="8" height="6"/>
<path fill-rule="evenodd" clip-rule="evenodd" fill="#A5A5A5" d="M786.987,3.41c0,1.883-1.605,3.414-3.586,3.414
	s-3.586-1.531-3.586-3.414c0-1.881,1.605-3.41,3.586-3.41S786.987,1.529,786.987,3.41z"/>
<rect x="793" y="1.614" fill="none" width="7" height="6"/>
<path fill-rule="evenodd" clip-rule="evenodd" fill="#A5A5A5" d="M800.655,3.41c0,1.883-1.605,3.414-3.586,3.414
	c-1.981,0-3.586-1.531-3.586-3.414c0-1.881,1.604-3.41,3.586-3.41C799.05,0,800.655,1.529,800.655,3.41z"/>
<rect x="806" y="1.614" fill="none" width="7" height="6"/>
<path fill-rule="evenodd" clip-rule="evenodd" fill="#A5A5A5" d="M814.323,3.41c0,1.883-1.605,3.414-3.586,3.414
	c-1.981,0-3.586-1.531-3.586-3.414c0-1.881,1.604-3.41,3.586-3.41C812.718,0,814.323,1.529,814.323,3.41z"/>
<rect x="820" y="1.614" fill="none" width="7" height="6"/>
<path fill-rule="evenodd" clip-rule="evenodd" fill="#A5A5A5" d="M827.991,3.41c0,1.883-1.605,3.414-3.586,3.414
	c-1.981,0-3.586-1.531-3.586-3.414c0-1.881,1.604-3.41,3.586-3.41C826.386,0,827.991,1.529,827.991,3.41z"/>
<rect x="835" y="1.614" fill="none" width="6" height="6"/>
<path fill-rule="evenodd" clip-rule="evenodd" fill="#A5A5A5" d="M841.659,3.41c0,1.883-1.606,3.414-3.586,3.414
	c-1.981,0-3.586-1.531-3.586-3.414c0-1.881,1.604-3.41,3.586-3.41C840.053,0,841.659,1.529,841.659,3.41z"/>
<rect x="848" y="1.614" fill="none" width="6" height="6"/>
<path fill-rule="evenodd" clip-rule="evenodd" fill="#A5A5A5" d="M855.327,3.41c0,1.883-1.605,3.414-3.586,3.414
	c-1.981,0-3.586-1.531-3.586-3.414c0-1.881,1.604-3.41,3.586-3.41C853.722,0,855.327,1.529,855.327,3.41z"/>
<rect x="862" y="1.614" fill="none" width="6" height="6"/>
<path fill-rule="evenodd" clip-rule="evenodd" fill="#A5A5A5" d="M868.995,3.41c0,1.883-1.606,3.414-3.586,3.414
	c-1.981,0-3.586-1.531-3.586-3.414c0-1.881,1.604-3.41,3.586-3.41C867.389,0,868.995,1.529,868.995,3.41z"/>
<rect x="876" y="1.614" fill="none" width="7" height="6"/>
<path fill-rule="evenodd" clip-rule="evenodd" fill="#A5A5A5" d="M882.663,3.41c0,1.883-1.606,3.414-3.586,3.414
	c-1.98,0-3.586-1.531-3.586-3.414c0-1.881,1.605-3.41,3.586-3.41C881.057,0,882.663,1.529,882.663,3.41z"/>
<rect x="889" y="1.614" fill="none" width="7" height="6"/>
<path fill-rule="evenodd" clip-rule="evenodd" fill="#A5A5A5" d="M896.331,3.41c0,1.883-1.606,3.414-3.586,3.414
	c-1.98,0-3.586-1.531-3.586-3.414c0-1.881,1.605-3.41,3.586-3.41C894.725,0,896.331,1.529,896.331,3.41z"/>
<rect x="903" y="1.614" fill="none" width="7" height="6"/>
<path fill-rule="evenodd" clip-rule="evenodd" fill="#A5A5A5" d="M909.999,3.41c0,1.883-1.606,3.414-3.586,3.414
	c-1.98,0-3.586-1.531-3.586-3.414c0-1.881,1.605-3.41,3.586-3.41C908.393,0,909.999,1.529,909.999,3.41z"/>
<rect x="917" y="1.614" fill="none" width="7" height="6"/>
<path fill-rule="evenodd" clip-rule="evenodd" fill="#A5A5A5" d="M923.667,3.41c0,1.883-1.606,3.414-3.586,3.414
	c-1.981,0-3.586-1.531-3.586-3.414c0-1.881,1.604-3.41,3.586-3.41C922.061,0,923.667,1.529,923.667,3.41z"/>
<rect x="929" y="1.614" fill="none" width="8" height="6"/>
<path fill-rule="evenodd" clip-rule="evenodd" fill="#A5A5A5" d="M937.335,3.41c0,1.883-1.606,3.414-3.587,3.414
	s-3.585-1.531-3.585-3.414c0-1.881,1.604-3.41,3.585-3.41S937.335,1.529,937.335,3.41z"/>
<rect x="943" y="1.614" fill="none" width="8" height="6"/>
<path fill-rule="evenodd" clip-rule="evenodd" fill="#A5A5A5" d="M951.003,3.41c0,1.883-1.607,3.414-3.587,3.414
	c-1.98,0-3.585-1.531-3.585-3.414c0-1.881,1.604-3.41,3.585-3.41C949.396,0,951.003,1.529,951.003,3.41z"/>
<rect x="957" y="1.614" fill="none" width="8" height="6"/>
<path fill-rule="evenodd" clip-rule="evenodd" fill="#A5A5A5" d="M964.671,3.41c0,1.883-1.607,3.414-3.588,3.414
	c-1.979,0-3.584-1.531-3.584-3.414c0-1.881,1.604-3.41,3.584-3.41C963.063,0,964.671,1.529,964.671,3.41z"/>
<rect x="970" y="1.614" fill="none" width="8" height="6"/>
<path fill-rule="evenodd" clip-rule="evenodd" fill="#A5A5A5" d="M978.339,3.41c0,1.883-1.607,3.414-3.588,3.414
	c-1.979,0-3.584-1.531-3.584-3.414c0-1.881,1.604-3.41,3.584-3.41C976.731,0,978.339,1.529,978.339,3.41z"/>
<rect x="984" y="1.614" fill="none" width="8" height="6"/>
<path fill-rule="evenodd" clip-rule="evenodd" fill="#A5A5A5" d="M992.007,3.41c0,1.883-1.606,3.414-3.588,3.414
	c-1.979,0-3.584-1.531-3.584-3.414c0-1.881,1.604-3.41,3.584-3.41C990.4,0,992.007,1.529,992.007,3.41z"/>
<rect x="998" y="1.614" fill="none" width="8" height="6"/>
<path fill-rule="evenodd" clip-rule="evenodd" fill="#A5A5A5" d="M1005.675,3.41c0,1.883-1.606,3.414-3.588,3.414
	c-1.979,0-3.584-1.531-3.584-3.414c0-1.881,1.604-3.41,3.584-3.41C1004.068,0,1005.675,1.529,1005.675,3.41z"/>
<rect x="1012" y="1.614" fill="none" width="7" height="6"/>
<path fill-rule="evenodd" clip-rule="evenodd" fill="#A5A5A5" d="M1019.343,3.41c0,1.883-1.606,3.414-3.588,3.414
	c-1.979,0-3.585-1.531-3.585-3.414c0-1.881,1.605-3.41,3.585-3.41C1017.736,0,1019.343,1.529,1019.343,3.41z"/>
<rect x="1025" y="1.614" fill="none" width="8" height="6"/>
<path fill-rule="evenodd" clip-rule="evenodd" fill="#A5A5A5" d="M1033.01,3.41c0,1.883-1.605,3.414-3.587,3.414
	c-1.979,0-3.584-1.531-3.584-3.414c0-1.881,1.604-3.41,3.584-3.41C1031.404,0,1033.01,1.529,1033.01,3.41z"/>
<rect x="1039" y="1.614" fill="none" width="8" height="6"/>
<path fill-rule="evenodd" clip-rule="evenodd" fill="#A5A5A5" d="M1046.678,3.41c0,1.883-1.605,3.414-3.587,3.414
	c-1.979,0-3.585-1.531-3.585-3.414c0-1.881,1.605-3.41,3.585-3.41C1045.072,0,1046.678,1.529,1046.678,3.41z"/>
<rect x="1053" y="1.614" fill="none" width="6" height="6"/>
<path fill-rule="evenodd" clip-rule="evenodd" fill="#A5A5A5" d="M1060.346,3.41c0,1.883-1.605,3.414-3.587,3.414
	c-1.98,0-3.585-1.531-3.585-3.414c0-1.881,1.604-3.41,3.585-3.41C1058.74,0,1060.346,1.529,1060.346,3.41z"/>
<rect x="1066" y="1.614" fill="none" width="7" height="6"/>
<path fill-rule="evenodd" clip-rule="evenodd" fill="#A5A5A5" d="M1074.014,3.41c0,1.883-1.605,3.414-3.587,3.414
	c-1.98,0-3.585-1.531-3.585-3.414c0-1.881,1.604-3.41,3.585-3.41C1072.408,0,1074.014,1.529,1074.014,3.41z"/>
<rect x="1080" y="1.614" fill="none" width="7" height="6"/>
<path fill-rule="evenodd" clip-rule="evenodd" fill="#A5A5A5" d="M1087.681,3.41c0,1.883-1.604,3.414-3.586,3.414
	c-1.98,0-3.586-1.531-3.586-3.414c0-1.881,1.605-3.41,3.586-3.41C1086.076,0,1087.681,1.529,1087.681,3.41z"/>
<rect x="1094" y="1.614" fill="none" width="6" height="6"/>
<path fill-rule="evenodd" clip-rule="evenodd" fill="#A5A5A5" d="M1101.349,3.41c0,1.883-1.605,3.414-3.586,3.414
	s-3.586-1.531-3.586-3.414c0-1.881,1.605-3.41,3.586-3.41S1101.349,1.529,1101.349,3.41z"/>
<rect x="1108" y="1.614" fill="none" width="6" height="6"/>
<path fill-rule="evenodd" clip-rule="evenodd" fill="#A5A5A5" d="M1115.017,3.41c0,1.883-1.605,3.414-3.586,3.414
	s-3.586-1.531-3.586-3.414c0-1.881,1.605-3.41,3.586-3.41S1115.017,1.529,1115.017,3.41z"/>
<rect x="1122" y="1.614" fill="none" width="6" height="6"/>
<path fill-rule="evenodd" clip-rule="evenodd" fill="#A5A5A5" d="M1128.685,3.41c0,1.883-1.605,3.414-3.586,3.414
	s-3.586-1.531-3.586-3.414c0-1.881,1.605-3.41,3.586-3.41S1128.685,1.529,1128.685,3.41z"/>
<rect x="1135" y="1.614" fill="none" width="6" height="6"/>
<path fill-rule="evenodd" clip-rule="evenodd" fill="#A5A5A5" d="M1142.353,3.41c0,1.883-1.605,3.414-3.586,3.414
	s-3.586-1.531-3.586-3.414c0-1.881,1.605-3.41,3.586-3.41S1142.353,1.529,1142.353,3.41z"/>
<rect x="1149" y="1.614" fill="none" width="7" height="6"/>
<path fill-rule="evenodd" clip-rule="evenodd" fill="#A5A5A5" d="M1156.021,3.41c0,1.883-1.605,3.414-3.586,3.414
	s-3.586-1.531-3.586-3.414c0-1.881,1.605-3.41,3.586-3.41S1156.021,1.529,1156.021,3.41z"/>
</svg>
