<?xml version="1.0" encoding="utf-8"?>
<!-- Generator: Adobe Illustrator 15.0.0, SVG Export Plug-In . SVG Version: 6.00 Build 0)  -->
<!DOCTYPE svg PUBLIC "-//W3C//DTD SVG 1.1//EN" "http://www.w3.org/Graphics/SVG/1.1/DTD/svg11.dtd">
<svg version="1.1" id="Layer_1" xmlns="http://www.w3.org/2000/svg" xmlns:xlink="http://www.w3.org/1999/xlink" x="0px" y="0px"
	 width="41px" height="45px" viewBox="74.708 7.792 41 45" xml:space="preserve">
<path id="drop" fill="#515151" d="M101.646,42.605c9.046-6.058-1.281-22.503-5.711-27.412c-0.474,0.141-0.516,0.779-0.762,1.143
	c-2.55,3.768-10.124,12.709-8.376,21.32C87.909,43.128,95.852,46.486,101.646,42.605z M90.605,31.566
	c1.511,3.943,2.435,8.479,7.232,9.137C92.65,43.434,87.253,36.328,90.605,31.566z"/>
<path id="pill" fill="#515151" d="M88.143,46.867c5.531,0.085,10.628-6.518,14.024-10.34c3.75-4.219,10.888-9.549,9.455-15.851
	c-1.615-7.104-7.74-5.753-9.934-5.418c-2.917,0.445-8.449,6.63-12.917,11.195c-3.632,3.709-9.343,8.478-8.757,13.188
	C80.613,44.438,84.466,46.809,88.143,46.867z M108.914,19.775c2.867,5.453-4.416,9.667-6.639,12.847
	c-1.559-3.97-0.769-6.059-8.522-7.224C96.781,21.253,103.502,13.634,108.914,19.775z"/>
<g id="question">
	<path fill="#4D4D4D" d="M101.681,14.865c0,1.798,0,3.592,0,5.391c-3.818,0-7.639,0-11.457,0c0-1.799,0-3.593,0-5.391
		c0.674,0,1.348,0,2.021,0c-1.234-5.42,8.26-5.373,7.414-0.338C99.7,15.271,101.087,14.67,101.681,14.865z M94.941,13.852
		c0,0.34,0,0.676,0,1.014c0.676,0,1.348,0,2.021,0C97.422,13.354,95.606,13.228,94.941,13.852z"/>
	<path fill="#4D4D4D" d="M85.171,19.583c-0.365,7.563-0.971,18.257,0.336,25.269c5.471,1.299,14.534,0.703,20.553,0.338
		c2.25-6.514,0.417-17.104,1.012-25.27c-0.755-3.15-4.826-0.559-4.718-3.371c0.163-4.201,6.809,1.026,7.075,1.684
		c1.287,3.183,0.338,10.102,0.338,15.166c0,5.861,1.217,13.568-3.369,14.822c-3.959,1.082-7.084,0-11.119,0
		c-5.846,0-11.293,0.853-12.805-2.693c-1.569-3.688-0.336-9.282-0.336-13.143c0-4.639,0-8.826,0-13.478
		c0.101-2.675,7.281-5.767,7.413-2.358C89.655,19.281,85.604,16.836,85.171,19.583z"/>
	<g>
		<path fill="#515151" stroke="#515151" stroke-miterlimit="10" d="M93.407,34.691l-0.072-0.59c-0.221-1.207,0.44-1.265,2.276-2.627
			c1.653-1.207,2.571-2.093,2.571-3.116c0-1.159-0.883-1.726-3.195-1.75c-1.322,0-2.118,0.822-3.204,1.523
			c-0.507,0.33-1.481-0.806-1.355-1.082c0.599-1.324,2.979-2.285,4.927-2.285c4.224,0,6.134,1.616,6.134,3.342
			c0,1.547-1.396,2.657-3.159,3.958c-1.617,1.184-2.203,0.897-2.094,2.061c0,0,0.131,0.511,0.074,0.566
			C96.156,34.842,93.407,34.691,93.407,34.691z M92.859,38.009c0-0.696,0.824-1.39,1.96-1.39c1.202,0,1.981,0.693,1.981,1.39
			c0,0.661-0.769,1.173-2.004,1.173C93.66,39.182,92.859,38.67,92.859,38.009z"/>
	</g>
</g>
<g id="pipette">
	<path fill="#515151" d="M83.653,50.938c1.702-1.14-0.241-4.236-1.075-5.162c-0.09,0.025-0.098,0.147-0.144,0.216
		c-0.48,0.71-1.905,2.394-1.578,4.015C81.066,51.034,82.561,51.667,83.653,50.938z"/>
	<path fill="#4D4D4D" stroke="#4D4D4D" stroke-width="0.5" stroke-miterlimit="10" d="M109.666,17.293
		c0.323,0.161,0.646,0.325,0.968,0.487c0.826,0.813,0.013,2.47-0.975,2.971c0.085,1.391,0.411,2.431-0.63,4.011
		c-1.891,2.879-5.356,4.669-7.247,6.942c1.006,0.711,0.211,2.83-0.977,2.971c-0.533-0.026-1.314-0.42-1.658-0.834
		c-2.895,1.442-7.069,7.673-10.15,9.08c-0.641,0.293-2.021,0.127-2.838,0.478c-0.996,0.43-1.352,1.5-2.561,0.967
		c-2.01-0.891-0.556-2.371,0.006-3.461c0.559-1.086,0.515-2.406,1.253-3.527c1.746-2.652,7.474-6.41,9.25-8.664
		c-1.858-1.176,0.243-4.688,2.082-2.764c1.52-1.234,1.069-1.223,2.741-2.797c2.674-2.518,4.972-5.748,8.45-4.408
		C108.08,18.072,108.741,17.285,109.666,17.293z M85.617,37.932c-0.637,0.965-0.636,2.198-1.113,3.25
		c-0.384,0.842-1.489,1.2-0.767,2.215c0.885,0.353,1.404-0.402,2.009-0.897c4.419,0.005,9.173-6.694,12.643-9.558
		c-1.302-1.182-2.381-2.438-3.521-3.674C92.9,31.845,87.537,35.029,85.617,37.932z"/>
</g>
<g id="cross">
	<path fill="none" stroke="#4D4D4D" stroke-width="2" stroke-linecap="round" stroke-miterlimit="10" d="M111.381,46.021
		c8.004,6.229-17.5-17.405-32.5,1.787"/>
	<path fill="#FFFFFF" d="M101.4,16.71c-1.755-0.174-3.51-0.347-5.265-0.52c-0.37,2.555-0.235,5.816-0.943,7.899
		c-2.734,0.341-6.333-0.526-9.407-0.659c-0.183,2.024-0.366,4.05-0.548,6.073c3.068,0.606,7.322,0.081,9.564,1.476
		c-0.436,4.842-0.872,9.682-1.309,14.523c1.756,0.172,3.51,0.344,5.265,0.518c0.585-4.832,0.636-10.41,1.562-14.766
		c2.735-0.342,6.333,0.526,9.408,0.658c0.182-2.021,0.364-4.048,0.547-6.073c-3.066-0.606-7.322-0.077-9.564-1.474
		C100.939,21.814,101.168,19.261,101.4,16.71z"/>
	<path fill="#4D4D4D" d="M103.168,15.019c-2.271-0.663-6.119-1.043-8.469-0.834c-0.708,2.082-0.572,5.344-0.943,7.9
		c-3.15-0.143-6.826-1.015-9.637-0.682c-0.294,3.256-0.587,6.512-0.881,9.77c2.721,0.854,6.455,0.747,9.59,1.209
		c-0.397,4.402-0.795,8.804-1.191,13.203c-0.367,2.896,7.042,2.03,7.042,2.03s2.069,0.729,2.114-1.129
		c-0.185-3.926,0.725-8.897,0.961-13.227c3.074,0.133,6.673,1,9.408,0.659c0.768-2.692,0.68-6.583,1.109-9.748
		c-2.609-1.045-6.958-0.427-9.564-1.474C102.793,20.204,103.498,17.116,103.168,15.019z M110.274,25.84
		c-0.183,2.025-0.365,4.051-0.547,6.073c-3.075-0.132-6.673-1-9.408-0.658c-0.926,4.354-0.977,9.935-1.562,14.767
		c-1.755-0.174-3.509-0.347-5.265-0.519c0.437-4.843,0.873-9.683,1.309-14.522c-2.242-1.396-6.496-0.869-9.564-1.477
		c0.182-2.023,0.365-4.049,0.548-6.073c3.074,0.133,6.673,1,9.407,0.659c0.708-2.083,0.573-5.345,0.943-7.899
		c1.755,0.173,3.51,0.346,5.265,0.52c-0.231,2.551-0.461,5.104-0.69,7.656C102.951,25.763,107.208,25.233,110.274,25.84z"/>
</g>
</svg>
