[
  {
    "year": 0,
    "values": [
      { "label": "Undiagnosed", "value": 100 },
      { "label": "Diagnosed", "value": [
        { "label": "Total", "value": 0 },
        { "label": "No care", "value": 0 },
        { "label": "In care", "value": 0 },
        { "label": "ART", "value": 0 }
      ]},
      { "label": "Dead", "value": 0 },
      { "label": "Lost to follow up", "value": 0 }
    ]
  },{
    "year": 3,
    "values": [
      { "label": "Undiagnosed", "value": 50 },
      { "label": "Diagnosed", "value": [
        { "label": "Total", "value": 50 },
        { "label": "No care", "value": 0 },
        { "label": "In care", "value": 0 },
        { "label": "ART", "value": 0 }
      ]},
      { "label": "Dead", "value": 0 },
      { "label": "Lost to follow up", "value": 0 }
    ]
  },{
    "year": 5,
    "values": [
      { "label": "Undiagnosed", "value": 40 },
      { "label": "Diagnosed", "value": [
        { "label": "Total", "value": 60 },
        { "label": "No care", "value": 20 },
        { "label": "In care", "value": 40 },
        { "label": "ART", "value": 0 }
      ]},
      { "label": "Dead", "value": 0 },
      { "label": "Lost to follow up", "value": 0 }
    ]
  },{
    "year": 9,
    "values": [
      { "label": "Undiagnosed", "value": 26 },
      { "label": "Diagnosed", "value": [
        { "label": "Total", "value": 74 },
        { "label": "No care", "value": 42 },
        { "label": "In care", "value": 14 },
        { "label": "ART", "value": 18 }
      ]},
      { "label": "Dead", "value": 0 },
      { "label": "Lost to follow up", "value": 0 }
    ]
  },{
    "year": 11,
    "values": [
      { "label": "Undiagnosed", "value": 0 },
      { "label": "Diagnosed", "value": [
        { "label": "Total", "value": 22 },
        { "label": "No care", "value": 0 },
        { "label": "In care", "value": 0 },
        { "label": "ART", "value": 22 }
      ]},
      { "label": "Dead", "value": 68 },
      { "label": "Lost to follow up", "value": 10 }
    ]
  },{
    "year": 15,
    "values": [
      { "label": "Undiagnosed", "value": 0 },
      { "label": "Diagnosed", "value": [
        { "label": "Total", "value": 12.5 },
        { "label": "No care", "value": 0 },
        { "label": "In care", "value": 0 },
        { "label": "ART", "value": 12.5 }
      ]},
      { "label": "Dead", "value": 71.5 },
      { "label": "Lost to follow up", "value": 16 }
    ]
  }
]
